{
  "_class": "shapeGroup",
  "clippingMaskMode": 0,
  "do_objectID": "9709E002-134B-4663-91DB-770A63136108",
  "exportOptions": {
    "_class": "exportOptions",
    "exportFormats": [
    ],
    "includedLayerIds": [
    ],
    "layerOptions": 0,
    "shouldTrim": false
  },
  "frame": {
    "_class": "rect",
    "constrainProportions": false,
    "height": 32,
    "width": 32,
    "x": 0,
    "y": 0
  },
  "hasClickThrough": false,
  "hasClippingMask": false,
  "isFlippedHorizontal": false,
  "isFlippedVertical": false,
  "isLocked": false,
  "isVisible": true,
  "layerListExpandedType": 0,
  "layers": [
    {
      "class": "rectangle",
      "id": "1D63A04B-7776-4B60-8A18-4113AB118F20"
    }
  ],
  "name": "label-fill/yellow",
  "nameIsFixed": true,
  "resizingConstraint": 63,
  "resizingType": 0,
  "rotation": 0,
  "shouldBreakMaskChain": false,
  "style": {
    "sharedObjectID": "7ED6E367-8D86-4D01-AD1F-861A1670153E"
  },
  "windingRule": 1
}