{
  "_class": "group",
  "do_objectID": "3D40918B-DFAA-43A5-A8D8-789A3043D9DF",
  "exportOptions": {
    "_class": "exportOptions",
    "exportFormats": [
    ],
    "includedLayerIds": [
    ],
    "layerOptions": 0,
    "shouldTrim": false
  },
  "frame": {
    "_class": "rect",
    "constrainProportions": false,
    "height": 440,
    "width": 220,
    "x": 0,
    "y": 0
  },
  "hasClickThrough": false,
  "isFlippedHorizontal": false,
  "isFlippedVertical": false,
  "isLocked": false,
  "isVisible": true,
  "layerListExpandedType": 2,
  "layers": [
    {
      "class": "symbolInstance",
      "id": "F00B92CE-9413-490C-A1E0-C4E354FAB052"
    },
    {
      "class": "symbolInstance",
      "id": "D6815381-6929-4747-BAF8-8F4BCC075462"
    },
    {
      "class": "symbolInstance",
      "id": "ADFA4DAE-63EE-473D-BC17-FE00AA7FA264"
    },
    {
      "class": "symbolInstance",
      "id": "15AD88F7-FD1B-4A91-9A21-128AE5B5B063"
    },
    {
      "class": "symbolInstance",
      "id": "5AA6693B-BAEC-4474-9D05-A068C8F44F71"
    },
    {
      "class": "symbolInstance",
      "id": "4C736646-7455-4A3F-9681-9669C261698F"
    },
    {
      "class": "symbolInstance",
      "id": "33F16EE8-61B3-40AF-8991-38C930A520AB"
    },
    {
      "class": "symbolInstance",
      "id": "15ECC822-C94F-4A47-BF72-D1604FD05EFB"
    },
    {
      "class": "symbolInstance",
      "id": "5783579A-C03E-4301-A565-D4E1FB8E22D2"
    },
    {
      "class": "group",
      "id": "52704B53-10C4-49E0-B5A9-6F3F0AF093BD"
    },
    {
      "class": "symbolInstance",
      "id": "25013F54-CC8D-4D98-8DFA-9065343C6EA4"
    },
    {
      "class": "symbolInstance",
      "id": "60367450-5225-4EE6-BB46-856BFB76A4D5"
    }
  ],
  "name": "top-aligned",
  "nameIsFixed": true,
  "resizingConstraint": 11,
  "resizingType": 0,
  "rotation": 0,
  "shouldBreakMaskChain": false,
  "style": {
    "_class": "style",
    "endDecorationType": 0,
    "miterLimit": 10,
    "startDecorationType": 0
  }
}