{
  "_class": "group",
  "do_objectID": "E3121E86-1D9D-4C08-B324-8A0FA3B28D78",
  "exportOptions": {
    "_class": "exportOptions",
    "exportFormats": [
    ],
    "includedLayerIds": [
    ],
    "layerOptions": 0,
    "shouldTrim": false
  },
  "frame": {
    "_class": "rect",
    "constrainProportions": false,
    "height": 40,
    "width": 220,
    "x": 0,
    "y": 104
  },
  "hasClickThrough": false,
  "isFlippedHorizontal": false,
  "isFlippedVertical": false,
  "isLocked": false,
  "isVisible": true,
  "layerListExpandedType": 0,
  "layers": [
    {
      "class": "group",
      "id": "F451D121-E3A2-43EC-B687-E33DD86D4347"
    },
    {
      "class": "symbolInstance",
      "id": "E20E3A40-C9EB-4425-ACE2-3E2FEB2CFCB6"
    }
  ],
  "name": "sidebar/molecules/menu-item/",
  "nameIsFixed": false,
  "resizingConstraint": 63,
  "resizingType": 0,
  "rotation": 0,
  "shouldBreakMaskChain": false,
  "style": {
    "_class": "style",
    "endDecorationType": 0,
    "miterLimit": 10,
    "startDecorationType": 0
  }
}