{
  "_class": "shapeGroup",
  "clippingMaskMode": 0,
  "do_objectID": "D0B11E21-E95A-4490-96C3-92C6C9541080",
  "exportOptions": {
    "_class": "exportOptions",
    "exportFormats": [
    ],
    "includedLayerIds": [
    ],
    "layerOptions": 0,
    "shouldTrim": false
  },
  "frame": {
    "_class": "rect",
    "constrainProportions": false,
    "height": 24,
    "width": 120,
    "x": 0,
    "y": 4
  },
  "hasClickThrough": false,
  "hasClippingMask": false,
  "isFlippedHorizontal": false,
  "isFlippedVertical": false,
  "isLocked": false,
  "isVisible": true,
  "layerListExpandedType": 1,
  "layers": [
    {
      "class": "rectangle",
      "id": "CF4592AA-A174-41C6-A386-ACC25CC800E9"
    }
  ],
  "name": "Rectangle 5 Copy 5",
  "nameIsFixed": false,
  "resizingConstraint": 63,
  "resizingType": 0,
  "rotation": 0,
  "shouldBreakMaskChain": false,
  "style": {
    "sharedObjectID": "09334668-4522-4969-99CC-2D060C8F8009"
  },
  "windingRule": 1
}