{
  "_class": "shapePath",
  "booleanOperation": 1,
  "do_objectID": "EC5DA514-16DA-4DD4-B44B-D58C15B7A2D0",
  "edited": true,
  "exportOptions": {
    "_class": "exportOptions",
    "exportFormats": [
    ],
    "includedLayerIds": [
    ],
    "layerOptions": 0,
    "shouldTrim": false
  },
  "frame": {
    "_class": "rect",
    "constrainProportions": false,
    "height": 12,
    "width": 10,
    "x": 2,
    "y": 2
  },
  "isFlippedHorizontal": false,
  "isFlippedVertical": false,
  "isLocked": false,
  "isVisible": true,
  "layerListExpandedType": 0,
  "name": "Rectangle 65",
  "nameIsFixed": false,
  "path": {
    "_class": "path",
    "isClosed": true,
    "pointRadiusBehaviour": 1,
    "points": [
      {
        "_class": "curvePoint",
        "cornerRadius": 0,
        "curveFrom": "{0.089543050033841262, 0}",
        "curveMode": 4,
        "curveTo": "{0.19999999999999996, 0}",
        "hasCurveFrom": true,
        "hasCurveTo": false,
        "point": "{0.19999999999999996, 0}"
      },
      {
        "_class": "curvePoint",
        "cornerRadius": 0,
        "curveFrom": "{0, 0.16666666666666666}",
        "curveMode": 4,
        "curveTo": "{0, 0.074619208361534461}",
        "hasCurveFrom": false,
        "hasCurveTo": true,
        "point": "{0, 0.16666666666666666}"
      },
      {
        "_class": "curvePoint",
        "cornerRadius": 0,
        "curveFrom": "{0, 0.92538079163846554}",
        "curveMode": 4,
        "curveTo": "{0, 0.83333333333333337}",
        "hasCurveFrom": true,
        "hasCurveTo": false,
        "point": "{0, 0.83333333333333337}"
      },
      {
        "_class": "curvePoint",
        "cornerRadius": 0,
        "curveFrom": "{0.20000000000000001, 1}",
        "curveMode": 4,
        "curveTo": "{0.089543050033841443, 1}",
        "hasCurveFrom": false,
        "hasCurveTo": true,
        "point": "{0.20000000000000001, 1}"
      },
      {
        "_class": "curvePoint",
        "cornerRadius": 0,
        "curveFrom": "{0.91045694996615834, 1}",
        "curveMode": 4,
        "curveTo": "{0.80000000000000004, 1}",
        "hasCurveFrom": true,
        "hasCurveTo": false,
        "point": "{0.80000000000000004, 1}"
      },
      {
        "_class": "curvePoint",
        "cornerRadius": 0,
        "curveFrom": "{1, 0.83333333333333337}",
        "curveMode": 4,
        "curveTo": "{1, 0.92538079163846521}",
        "hasCurveFrom": false,
        "hasCurveTo": true,
        "point": "{1, 0.83333333333333337}"
      },
      {
        "_class": "curvePoint",
        "cornerRadius": 0,
        "curveFrom": "{1, 0.074619208361534531}",
        "curveMode": 4,
        "curveTo": "{1, 0.1666666666666666}",
        "hasCurveFrom": true,
        "hasCurveTo": false,
        "point": "{1, 0.1666666666666666}"
      },
      {
        "_class": "curvePoint",
        "cornerRadius": 0,
        "curveFrom": "{0.80000000000000004, 0}",
        "curveMode": 4,
        "curveTo": "{0.91045694996615845, -1.8503717077085941e-17}",
        "hasCurveFrom": false,
        "hasCurveTo": true,
        "point": "{0.80000000000000004, 0}"
      }
    ]
  },
  "resizingConstraint": 63,
  "resizingType": 0,
  "rotation": 0,
  "shouldBreakMaskChain": false
}