{
  "_class": "group",
  "do_objectID": "3A7DD848-FC01-48F9-9C5F-A805C7402089",
  "exportOptions": {
    "_class": "exportOptions",
    "exportFormats": [
    ],
    "includedLayerIds": [
    ],
    "layerOptions": 0,
    "shouldTrim": false
  },
  "frame": {
    "_class": "rect",
    "constrainProportions": false,
    "height": 28,
    "width": 96,
    "x": 0.5,
    "y": 0
  },
  "hasClickThrough": false,
  "isFlippedHorizontal": false,
  "isFlippedVertical": false,
  "isLocked": false,
  "isVisible": false,
  "layerListExpandedType": 0,
  "layers": [
    {
      "class": "shapeGroup",
      "id": "743DD41D-733E-4124-95C3-466D82A3B1CC"
    },
    {
      "class": "shapeGroup",
      "id": "3A4D9923-B70D-4FCC-96D7-4BB4653F2478"
    },
    {
      "class": "text",
      "id": "64A3D4C6-D052-4CB2-A0D6-ED381704E44A"
    }
  ],
  "name": "global-components/tooltips/top",
  "nameIsFixed": false,
  "resizingConstraint": 63,
  "resizingType": 0,
  "rotation": 0,
  "shouldBreakMaskChain": false,
  "style": {
    "_class": "style",
    "endDecorationType": 0,
    "miterLimit": 10,
    "startDecorationType": 0
  }
}