{
  "_class": "shapePath",
  "booleanOperation": -1,
  "do_objectID": "73E5738C-2AC2-4316-9BB1-EAC5411B5610",
  "edited": true,
  "exportOptions": {
    "_class": "exportOptions",
    "exportFormats": [
    ],
    "includedLayerIds": [
    ],
    "layerOptions": 0,
    "shouldTrim": false
  },
  "frame": {
    "_class": "rect",
    "constrainProportions": false,
    "height": 2.666666666666669,
    "width": 2.666666666666533,
    "x": 9.333333333333332,
    "y": 4.000000000000001
  },
  "isFlippedHorizontal": false,
  "isFlippedVertical": false,
  "isLocked": false,
  "isVisible": true,
  "layerListExpandedType": 0,
  "name": "Path",
  "nameIsFixed": false,
  "path": {
    "_class": "path",
    "isClosed": true,
    "pointRadiusBehaviour": 0,
    "points": [
      {
        "_class": "curvePoint",
        "cornerRadius": 0,
        "curveFrom": "{1, 0.63802152343750007}",
        "curveMode": 2,
        "curveTo": "{1, 0.36197847656250065}",
        "hasCurveFrom": true,
        "hasCurveTo": true,
        "point": "{1, 0.49999999999999933}"
      },
      {
        "_class": "curvePoint",
        "cornerRadius": 0,
        "curveFrom": "{0.75585888671875867, 0.95117236328124999}",
        "curveMode": 2,
        "curveTo": "{0.95117236328137811, 0.75585888671875046}",
        "hasCurveFrom": true,
        "hasCurveTo": true,
        "point": "{0.85351562500006839, 0.85351562499999989}"
      },
      {
        "_class": "curvePoint",
        "cornerRadius": 0,
        "curveFrom": "{0.36197847656256887, 1}",
        "curveMode": 2,
        "curveTo": "{0.63802152343760798, 1}",
        "hasCurveFrom": true,
        "hasCurveTo": true,
        "point": "{0.5, 1}"
      },
      {
        "_class": "curvePoint",
        "cornerRadius": 0,
        "curveFrom": "{0.04882763671879875, 0.75585888671875046}",
        "curveMode": 2,
        "curveTo": "{0.24414111328124133, 0.95117236328124999}",
        "hasCurveFrom": true,
        "hasCurveTo": true,
        "point": "{0.14648437499993161, 0.85351562499999989}"
      },
      {
        "_class": "curvePoint",
        "cornerRadius": 0,
        "curveFrom": "{0, 0.36197847656250065}",
        "curveMode": 2,
        "curveTo": "{0, 0.63802152343750007}",
        "hasCurveFrom": true,
        "hasCurveTo": true,
        "point": "{0, 0.49999999999999933}"
      },
      {
        "_class": "curvePoint",
        "cornerRadius": 0,
        "curveFrom": "{0.24414111328124133, 0.048827636718749283}",
        "curveMode": 2,
        "curveTo": "{0.04882763671879875, 0.24414111328124957}",
        "hasCurveFrom": true,
        "hasCurveTo": true,
        "point": "{0.14648437499993161, 0.14648437500000011}"
      },
      {
        "_class": "curvePoint",
        "cornerRadius": 0,
        "curveFrom": "{0.63802152343760798, 0}",
        "curveMode": 2,
        "curveTo": "{0.36197847656256887, 0}",
        "hasCurveFrom": true,
        "hasCurveTo": true,
        "point": "{0.5, 0}"
      },
      {
        "_class": "curvePoint",
        "cornerRadius": 0,
        "curveFrom": "{0.95117236328137811, 0.24414111328124957}",
        "curveMode": 2,
        "curveTo": "{0.75585888671875867, 0.048827636718749283}",
        "hasCurveFrom": true,
        "hasCurveTo": true,
        "point": "{0.85351562500006839, 0.14648437500000011}"
      }
    ]
  },
  "resizingConstraint": 63,
  "resizingType": 0,
  "rotation": 0,
  "shouldBreakMaskChain": false
}