{
  "_class": "group",
  "do_objectID": "F62F8C09-BC64-4EFF-8725-8CA06A499F15",
  "exportOptions": {
    "_class": "exportOptions",
    "exportFormats": [
    ],
    "includedLayerIds": [
    ],
    "layerOptions": 0,
    "shouldTrim": false
  },
  "frame": {
    "_class": "rect",
    "constrainProportions": false,
    "height": 20.3921568627451,
    "width": 16.9629005059022,
    "x": 42.00337268128162,
    "y": 15.29411764705882
  },
  "hasClickThrough": false,
  "isFlippedHorizontal": false,
  "isFlippedVertical": false,
  "isLocked": false,
  "isVisible": true,
  "layerListExpandedType": 0,
  "layers": [
    {
      "class": "shapeGroup",
      "id": "E2D57BD4-1671-45BD-BDD3-E663CFA29A5E"
    },
    {
      "class": "text",
      "id": "307D11EA-2167-4764-B042-186593F5F356"
    }
  ],
  "name": "count-badge",
  "nameIsFixed": true,
  "resizingConstraint": 63,
  "resizingType": 0,
  "rotation": 0,
  "shouldBreakMaskChain": false,
  "style": {
    "_class": "style",
    "endDecorationType": 0,
    "miterLimit": 10,
    "startDecorationType": 0
  }
}