{
  "_class": "group",
  "do_objectID": "7E7ECA72-8E3F-4A80-A84E-8C59353561BC",
  "exportOptions": {
    "_class": "exportOptions",
    "exportFormats": [
    ],
    "includedLayerIds": [
    ],
    "layerOptions": 0,
    "shouldTrim": false
  },
  "frame": {
    "_class": "rect",
    "constrainProportions": false,
    "height": 28,
    "width": 647,
    "x": 607,
    "y": 1162
  },
  "hasClickThrough": false,
  "isFlippedHorizontal": false,
  "isFlippedVertical": false,
  "isLocked": false,
  "isVisible": true,
  "layerListExpandedType": 2,
  "layers": [
    {
      "class": "shapeGroup",
      "id": "F88AD207-EC9B-4342-8010-649D678E6C8A"
    },
    {
      "class": "shapeGroup",
      "id": "5AC3B02C-1ABD-4CE0-B0AA-855612E28A7A"
    },
    {
      "class": "shapeGroup",
      "id": "AB687E3B-9405-46FD-BCE7-302B620FB984"
    },
    {
      "class": "text",
      "id": "4FCC6364-D80F-48F3-A4D4-5827C5C20298"
    }
  ],
  "name": "new_epic copy 15",
  "nameIsFixed": true,
  "resizingConstraint": 63,
  "resizingType": 0,
  "rotation": 0,
  "shouldBreakMaskChain": false,
  "style": {
    "_class": "style",
    "endDecorationType": 0,
    "miterLimit": 10,
    "startDecorationType": 0
  }
}