{
  "_class": "group",
  "do_objectID": "AA5742D9-9629-4F8B-BDB2-1E15BB31BF09",
  "exportOptions": {
    "_class": "exportOptions",
    "exportFormats": [
    ],
    "includedLayerIds": [
    ],
    "layerOptions": 0,
    "shouldTrim": false
  },
  "frame": {
    "_class": "rect",
    "constrainProportions": false,
    "height": 28,
    "width": 647,
    "x": 607,
    "y": 222
  },
  "hasClickThrough": false,
  "isFlippedHorizontal": false,
  "isFlippedVertical": false,
  "isLocked": false,
  "isVisible": true,
  "layerListExpandedType": 2,
  "layers": [
    {
      "class": "shapeGroup",
      "id": "9AD2F645-BC73-4EFB-8087-FBA4D00E6A85"
    },
    {
      "class": "shapeGroup",
      "id": "8EF7C71C-B4DA-482A-8899-50C8DADA74FB"
    },
    {
      "class": "text",
      "id": "62F8E1B0-13A6-42C3-A49B-7FBD02B6FB4A"
    }
  ],
  "name": "new_epic copy 4",
  "nameIsFixed": true,
  "resizingConstraint": 63,
  "resizingType": 0,
  "rotation": 0,
  "shouldBreakMaskChain": false,
  "style": {
    "_class": "style",
    "endDecorationType": 0,
    "miterLimit": 10,
    "startDecorationType": 0
  }
}