{
  "_class": "shapePath",
  "booleanOperation": -1,
  "do_objectID": "13B105FC-8D29-40A1-8328-FE21D482CB94",
  "edited": true,
  "exportOptions": {
    "_class": "exportOptions",
    "exportFormats": [
    ],
    "includedLayerIds": [
    ],
    "layerOptions": 0,
    "shouldTrim": false
  },
  "frame": {
    "_class": "rect",
    "constrainProportions": false,
    "height": 16,
    "width": 16,
    "x": 0,
    "y": 0
  },
  "isFlippedHorizontal": false,
  "isFlippedVertical": false,
  "isLocked": false,
  "isVisible": true,
  "layerListExpandedType": 0,
  "name": "Path",
  "nameIsFixed": false,
  "path": {
    "_class": "path",
    "isClosed": true,
    "pointRadiusBehaviour": 1,
    "points": [
      {
        "_class": "curvePoint",
        "cornerRadius": 0,
        "curveFrom": "{0.2238576250846033, 1}",
        "curveMode": 2,
        "curveTo": "{0.77614237491539673, 1}",
        "hasCurveFrom": true,
        "hasCurveTo": true,
        "point": "{0.50000000000000011, 1}"
      },
      {
        "_class": "curvePoint",
        "cornerRadius": 0,
        "curveFrom": "{-3.3817687554908901e-17, 0.22385762508460338}",
        "curveMode": 2,
        "curveTo": "{3.3817687554908901e-17, 0.77614237491539684}",
        "hasCurveFrom": true,
        "hasCurveTo": true,
        "point": "{0, 0.50000000000000011}"
      },
      {
        "_class": "curvePoint",
        "cornerRadius": 0,
        "curveFrom": "{0.77614237491539673, 1.6908843777454448e-17}",
        "curveMode": 4,
        "curveTo": "{0.22385762508460319, 5.0726531332363343e-17}",
        "hasCurveFrom": true,
        "hasCurveTo": true,
        "point": "{0.49999999999999994, 0}"
      },
      {
        "_class": "curvePoint",
        "cornerRadius": 0,
        "curveFrom": "{1, 0.77614237491539673}",
        "curveMode": 2,
        "curveTo": "{1, 0.22385762508460327}",
        "hasCurveFrom": true,
        "hasCurveTo": true,
        "point": "{1, 0.5}"
      }
    ]
  },
  "resizingConstraint": 63,
  "resizingType": 0,
  "rotation": 0,
  "shouldBreakMaskChain": false
}