{
  "_class": "group",
  "do_objectID": "B378F914-C50E-4379-9EDB-F4DB9B609663",
  "exportOptions": {
    "_class": "exportOptions",
    "exportFormats": [
    ],
    "includedLayerIds": [
    ],
    "layerOptions": 0,
    "shouldTrim": false
  },
  "frame": {
    "_class": "rect",
    "constrainProportions": false,
    "height": 2069,
    "width": 11,
    "x": 1249,
    "y": 148
  },
  "hasClickThrough": false,
  "isFlippedHorizontal": false,
  "isFlippedVertical": false,
  "isLocked": false,
  "isVisible": true,
  "layerListExpandedType": 0,
  "layers": [
    {
      "class": "shapeGroup",
      "id": "788B12B9-4656-4960-89FC-8A5C5F9B2187"
    },
    {
      "class": "shapeGroup",
      "id": "897CBD0E-1773-48B2-B959-62B4501149FF"
    },
    {
      "class": "shapeGroup",
      "id": "A0838438-38EB-42EF-90A1-7F221A42F132"
    },
    {
      "class": "shapeGroup",
      "id": "04A12FB2-FFDC-4FEE-A95A-4C8F1870AA35"
    }
  ],
  "name": "milestone",
  "nameIsFixed": true,
  "resizingConstraint": 63,
  "resizingType": 0,
  "rotation": 0,
  "shouldBreakMaskChain": false,
  "style": {
    "_class": "style",
    "endDecorationType": 0,
    "miterLimit": 10,
    "startDecorationType": 0
  }
}